data/noise/DS0007.CSV

Format,1.0B,
Memory Length,10000,
IntpDistance,0,
Trigger Address,4999,
Trigger Level,0.000E+00,
Source,Math,
Vertical Units,V,
Vertical Units Div,0,
Vertical Units Extend Div,16,
Label, ,
Probe Type,0,
Probe Ratio,1.000E+00,
Vertical Scale,1.000E+00,
Vertical Position,0.000E+00,
Horizontal Units,S,
Horizontal Scale,5.000E-04,
Horizontal Position,0.000E+00,
Horizontal Mode,Main,
SincET Mode,Real Time,
Sampling Period,5.000E-07,
Horizontal Old Scale,5.000E-04,
Horizontal Old Position,0.000E+00,
Firmware,V1.23,
Mode,Detail,
Waveform Data,
-2.500000e-03,-4.40e-01,
-2.499500e-03,1.28e+00,
-2.499000e-03,1.52e+00,
-2.498500e-03,4.00e-02,
-2.498000e-03,1.52e+00,
-2.497500e-03,9.60e-01,
-2.497000e-03,1.52e+00,
-2.496500e-03,1.32e+00,
-2.496000e-03,-4.00e-01,
-2.495500e-03,-8.00e-01,
-2.495000e-03,6.00e-01,
-2.494500e-03,-1.36e+00,
-2.494000e-03,1.52e+00,
-2.493500e-03,-7.20e-01,
-2.493000e-03,4.80e-01,
-2.492500e-03,2.80e-01,
-2.492000e-03,-6.00e-01,
-2.491500e-03,-3.20e-01,
-2.491000e-03,1.52e+00,
-2.490500e-03,-2.16e+00,
-2.490000e-03,-3.56e+00,
-2.489500e-03,9.60e-01,
-2.489000e-03,5.60e-01,
-2.488500e-03,6.80e-01,
-2.488000e-03,1.52e+00,
-2.487500e-03,6.40e-01,
-2.487000e-03,-1.48e+00,
-2.486500e-03,1.52e+00,
-2.486000e-03,-2.40e+00,
-2.485500e-03,6.80e-01,
-2.485000e-03,1.48e+00,
-2.484500e-03,-4.80e-01,
-2.484000e-03,3.60e-01,
-2.483500e-03,1.40e+00,
-2.483000e-03,-3.60e+00,
-2.482500e-03,-7.20e-01,
-2.482000e-03,4.00e-02,
-2.481500e-03,-1.48e+00,
-2.481000e-03,-2.32e+00,
-2.480500e-03,1.48e+00,
-2.480000e-03,-1.60e+00,
-2.479500e-03,8.00e-01,
-2.479000e-03,-5.20e-01,
-2.478500e-03,-1.32e+00,
-2.478000e-03,1.48e+00,
-2.477500e-03,-3.20e-01,
-2.477000e-03,-2.84e+00,
-2.476500e-03,-2.04e+00,
-2.476000e-03,8.40e-01,
-2.475500e-03,1.20e+00,
-2.475000e-03,8.00e-02,
-2.474500e-03,1.48e+00,
-2.474000e-03,-6.80e-01,
-2.473500e-03,1.48e+00,
-2.473000e-03,-9.60e-01,
-2.472500e-03,1.60e-01,
-2.472000e-03,1.44e+00,
-2.471500e-03,-1.20e-01,
-2.471000e-03,-2.24e+00,
-2.470500e-03,2.00e-01,
-2.470000e-03,-3.64e+00,
-2.469500e-03,4.80e-01,
-2.469000e-03,-1.12e+00,
-2.468500e-03,6.80e-01,
-2.468000e-03,4.00e-01,
-2.467500e-03,-1.72e+00,
-2.467000e-03,3.20e-01,
-2.466500e-03,-1.60e-01,
-2.466000e-03,-3.44e+00,
-2.465500e-03,1.40e+00,
-2.465000e-03,-3.64e+00,
-2.464500e-03,-1.28e+00,
-2.464000e-03,-3.08e+00,
-2.463500e-03,-8.00e-01,
-2.463000e-03,1.40e+00,
-2.462500e-03,2.00e-01,
-2.462000e-03,-2.32e+00,
-2.461500e-03,-8.00e-02,
-2.461000e-03,-6.80e-01,
-2.460500e-03,1.24e+00,
-2.460000e-03,7.20e-01,
-2.459500e-03,1.00e+00,
-2.459000e-03,-5.20e-01,
-2.458500e-03,5.20e-01,
-2.458000e-03,-6.40e-01,
-2.457500e-03,-3.68e+00,
-2.457000e-03,-2.00e-01,
-2.456500e-03,3.60e-01,
-2.456000e-03,1.40e+00,
-2.455500e-03,-2.16e+00,
-2.455000e-03,-3.28e+00,
-2.454500e-03,8.80e-01,
-2.454000e-03,1.40e+00,
-2.453500e-03,-3.20e-01,
-2.453000e-03,1.32e+00,
-2.452500e-03,-7.60e-01,
-2.452000e-03,-8.00e-02,
-2.451500e-03,-6.40e-01,
-2.451000e-03,-6.40e-01,
-2.450500e-03,6.00e-01,
-2.450000e-03,-2.48e+00,
-2.449500e-03,4.40e-01,
-2.449000e-03,-1.60e+00,
-2.448500e-03,1.36e+00,
-2.448000e-03,-1.08e+00,
-2.447500e-03,-1.08e+00,
-2.447000e-03,-4.00e-01,
-2.446500e-03,-3.72e+00,
-2.446000e-03,5.20e-01,
-2.445500e-03,5.20e-01,
-2.445000e-03,-1.68e+00,
-2.444500e-03,1.36e+00,
-2.444000e-03,-1.28e+00,
-2.443500e-03,-2.20e+00,
-2.443000e-03,1.36e+00,
-2.442500e-03,-1.72e+00,
-2.442000e-03,-5.60e-01,
-2.441500e-03,-1.56e+00,
-2.441000e-03,-4.80e-01,
-2.440500e-03,-1.48e+00,
-2.440000e-03,-3.72e+00,
-2.439500e-03,1.60e-01,
-2.439000e-03,-3.72e+00,
-2.438500e-03,-8.00e-01,
-2.438000e-03,-1.52e+00,
-2.437500e-03,-2.80e+00,
-2.437000e-03,-7.20e-01,
-2.436500e-03,-2.88e+00,
-2.436000e-03,0.00e+00,
-2.435500e-03,1.60e-01,
-2.435000e-03,-2.08e+00,
-2.434500e-03,-1.08e+00,
-2.434000e-03,2.00e-01,
-2.433500e-03,-2.00e-01,
-2.433000e-03,1.32e+00,
-2.432500e-03,-2.40e+00,
-2.432000e-03,-5.60e-01,
-2.431500e-03,6.00e-01,
-2.431000e-03,-2.64e+00,
-2.430500e-03,1.16e+00,
-2.430000e-03,-1.76e+00,
-2.429500e-03,-2.20e+00,
-2.429000e-03,-1.44e+00,
-2.428500e-03,1.32e+00,
-2.428000e-03,1.32e+00,
-2.427500e-03,1.32e+00,
-2.427000e-03,1.32e+00,
-2.426500e-03,-3.20e-01,
-2.426000e-03,4.80e-01,
-2.425500e-03,1.32e+00,
-2.425000e-03,-8.40e-01,
-2.424500e-03,6.00e-01,
-2.424000e-03,0.00e+00,
-2.423500e-03,-1.48e+00,
-2.423000e-03,9.60e-01,
-2.422500e-03,1.28e+00,
-2.422000e-03,1.20e+00,
-2.421500e-03,-4.00e-01,
-2.421000e-03,8.40e-01,
-2.420500e-03,-2.56e+00,
-2.420000e-03,1.32e+00,
-2.419500e-03,-3.24e+00,
-2.419000e-03,-4.40e-01,
-2.418500e-03,-3.20e-01,
-2.418000e-03,7.20e-01,
-2.417500e-03,-9.20e-01,
-2.417000e-03,-2.88e+00,
-2.416500e-03,1.28e+00,
-2.416000e-03,-3.60e-01,
-2.415500e-03,-1.72e+00,
-2.415000e-03,-8.80e-01,
-2.414500e-03,-8.80e-01,
-2.414000e-03,-1.40e+00,
-2.413500e-03,8.40e-01,
-2.413000e-03,1.28e+00,
-2.412500e-03,-3.04e+00,
-2.412000e-03,-2.72e+00,
-2.411500e-03,-4.80e-01,
-2.411000e-03,0.00e+00,
-2.410500e-03,1.24e+00,
-2.410000e-03,1.28e+00,
-2.409500e-03,2.40e-01,
-2.409000e-03,5.20e-01,
-2.408500e-03,1.24e+00,
-2.408000e-03,-2.36e+00,
-2.407500e-03,-2.60e+00,
-2.407000e-03,6.00e-01,
-2.406500e-03,-3.40e+00,
-2.406000e-03,-8.00e-01,
-2.405500e-03,-1.96e+00,
-2.405000e-03,-8.40e-01,
-2.404500e-03,1.24e+00,
-2.404000e-03,-6.80e-01,
-2.403500e-03,-4.00e-01,
-2.403000e-03,4.00e-02,
-2.402500e-03,-3.40e+00,
-2.402000e-03,1.24e+00,
-2.401500e-03,8.40e-01,
-2.401000e-03,0.00e+00,
-2.400500e-03,-2.40e+00,
-2.400000e-03,1.24e+00,
-2.399500e-03,-2.00e-01,
-2.399000e-03,-1.32e+00,
-2.398500e-03,1.08e+00,
-2.398000e-03,0.00e+00,
-2.397500e-03,1.00e+00,
-2.397000e-03,-8.00e-01,
-2.396500e-03,2.40e-01,
-2.396000e-03,5.20e-01,
-2.395500e-03,1.20e+00,
-2.395000e-03,6.80e-01,
-2.394500e-03,1.24e+00,
-2.394000e-03,1.24e+00,
-2.393500e-03,-3.60e+00,
-2.393000e-03,-2.96e+00,
-2.392500e-03,-1.32e+00,
-2.392000e-03,4.40e-01,
-2.391500e-03,1.16e+00,
-2.391000e-03,-2.96e+00,
-2.390500e-03,-8.00e-02,
-2.390000e-03,4.00e-01,
-2.389500e-03,-1.64e+00,
-2.389000e-03,1.20e+00,
-2.388500e-03,7.20e-01,
-2.388000e-03,1.24e+00,
-2.387500e-03,-2.24e+00,
-2.387000e-03,8.00e-02,
-2.386500e-03,-1.20e-01,
-2.386000e-03,2.00e-01,
-2.385500e-03,-2.08e+00,
-2.385000e-03,6.80e-01,
-2.384500e-03,-2.68e+00,
-2.384000e-03,1.20e+00,
-2.383500e-03,-3.48e+00,
-2.383000e-03,-7.60e-01,
-2.382500e-03,-3.92e+00,
-2.382000e-03,-1.84e+00,
-2.381500e-03,9.20e-01,
-2.381000e-03,-2.36e+00,
-2.380500e-03,-2.80e+00,
-2.380000e-03,-5.60e-01,
-2.379500e-03,-5.60e-01,
-2.379000e-03,1.16e+00,
-2.378500e-03,-2.68e+00,
-2.378000e-03,1.16e+00,
-2.377500e-03,-1.40e+00,
-2.377000e-03,-7.60e-01,
-2.376500e-03,-6.40e-01,
-2.376000e-03,1.16e+00,
-2.375500e-03,1.16e+00,
-2.375000e-03,-3.60e+00,
-2.374500e-03,3.60e-01,
-2.374000e-03,-1.08e+00,
-2.373500e-03,-8.40e-01,
-2.373000e-03,-3.80e+00,
-2.372500e-03,-6.00e-01,
-2.372000e-03,-1.48e+00,
-2.371500e-03,-7.20e-01,
-2.371000e-03,-2.48e+00,
-2.370500e-03,-2.40e+00,
-2.370000e-03,-1.48e+00,
-2.369500e-03,-8.80e-01,
-2.369000e-03,-5.60e-01,
-2.368500e-03,1.16e+00,
-2.368000e-03,-1.96e+00,
-2.367500e-03,1.12e+00,
-2.367000e-03,-2.32e+00,
-2.366500e-03,-9.20e-01,
-2.366000e-03,-7.20e-01,
-2.365500e-03,-4.00e-02,
-2.365000e-03,-1.48e+00,
-2.364500e-03,1.16e+00,
-2.364000e-03,-3.48e+00,
-2.363500e-03,1.12e+00,
-2.363000e-03,-3.60e-01,
-2.362500e-03,-2.96e+00,
-2.362000e-03,9.60e-01,
-2.361500e-03,1.12e+00,
-2.361000e-03,-1.88e+00,
-2.360500e-03,-6.00e-01,
-2.360000e-03,1.16e+00,
-2.359500e-03,7.20e-01,
-2.359000e-03,-1.60e+00,
-2.358500e-03,-2.84e+00,
-2.358000e-03,8.00e-02,
-2.357500e-03,0.00e+00,
-2.357000e-03,-1.40e+00,
-2.356500e-03,-4.80e-01,
-2.356000e-03,-1.84e+00,
-2.355500e-03,1.12e+00,
-2.355000e-03,-3.08e+00,
-2.354500e-03,-3.96e+00,
-2.354000e-03,-3.20e-01,
-2.353500e-03,3.60e-01,
-2.353000e-03,1.00e+00,
-2.352500e-03,-4.40e-01,
-2.352000e-03,1.12e+00,
-2.351500e-03,1.16e+00,
-2.351000e-03,-3.48e+00,
-2.350500e-03,6.40e-01,
-2.350000e-03,-2.12e+00,
-2.349500e-03,-1.32e+00,
-2.349000e-03,1.12e+00,
-2.348500e-03,-1.80e+00,
-2.348000e-03,-3.04e+00,
-2.347500e-03,1.12e+00,
-2.347000e-03,-1.40e+00,
-2.346500e-03,1.12e+00,
-2.346000e-03,-2.72e+00,
-2.345500e-03,-1.88e+00,
-2.345000e-03,-4.80e-01,
-2.344500e-03,5.20e-01,
-2.344000e-03,-4.00e-02,
-2.343500e-03,-1.20e-01,
-2.343000e-03,-4.00e+00,
-2.342500e-03,-2.84e+00,
-2.342000e-03,-6.40e-01,
-2.341500e-03,-3.96e+00,
-2.341000e-03,-3.40e+00,
-2.340500e-03,-2.36e+00,
-2.340000e-03,-3.84e+00,
-2.339500e-03,-1.76e+00,
-2.339000e-03,-1.44e+00,
-2.338500e-03,-3.20e-01,
-2.338000e-03,1.08e+00,
-2.337500e-03,-3.60e-01,
-2.337000e-03,-4.40e-01,
-2.336500e-03,1.12e+00,
-2.336000e-03,-2.40e+00,
-2.335500e-03,1.12e+00,
-2.335000e-03,5.60e-01,
-2.334500e-03,1.08e+00,
-2.334000e-03,-2.40e-01,
-2.333500e-03,-2.40e+00,
-2.333000e-03,-1.32e+00,
-2.332500e-03,-1.36e+00,
-2.332000e-03,-9.60e-01,
-2.331500e-03,1.08e+00,
-2.331000e-03,-2.72e+00,
-2.330500e-03,6.00e-01,
-2.330000e-03,1.08e+00,
-2.329500e-03,1.08e+00,
-2.329000e-03,6.40e-01,
-2.328500e-03,6.00e-01,
-2.328000e-03,-8.80e-01,
-2.327500e-03,0.00e+00,
-2.327000e-03,-7.20e-01,
-2.326500e-03,9.60e-01,
-2.326000e-03,1.08e+00,
-2.325500e-03,-3.20e-01,
-2.325000e-03,6.40e-01,
-2.324500e-03,1.08e+00,
-2.324000e-03,-1.52e+00,
-2.323500e-03,-2.76e+00,
-2.323000e-03,-4.00e+00,
-2.322500e-03,-4.00e+00,
-2.322000e-03,-1.28e+00,
-2.321500e-03,7.20e-01,
-2.321000e-03,2.40e-01,
-2.320500e-03,-2.16e+00,
-2.320000e-03,1.08e+00,
-2.319500e-03,4.00e-01,
-2.319000e-03,-5.20e-01,
-2.318500e-03,-6.00e-01,
-2.318000e-03,-1.72e+00,
-2.317500e-03,-1.92e+00,
-2.317000e-03,1.08e+00,
-2.316500e-03,4.00e-01,
-2.316000e-03,-3.20e-01,
-2.315500e-03,1.04e+00,
-2.315000e-03,4.00e-02,
-2.314500e-03,1.08e+00,
-2.314000e-03,-1.12e+00,
-2.313500e-03,-3.84e+00,
-2.313000e-03,1.08e+00,
-2.312500e-03,-2.40e-01,
-2.312000e-03,-1.36e+00,
-2.311500e-03,-9.20e-01,
-2.311000e-03,-4.00e-01,
-2.310500e-03,1.04e+00,
-2.310000e-03,-2.24e+00,
-2.309500e-03,-8.40e-01,
-2.309000e-03,-1.16e+00,
-2.308500e-03,5.60e-01,
-2.308000e-03,-4.40e-01,
-2.307500e-03,-3.56e+00,
-2.307000e-03,-3.40e+00,
-2.306500e-03,4.00e-01,
-2.306000e-03,-6.80e-01,
-2.305500e-03,2.00e-01,
-2.305000e-03,-2.00e+00,
-2.304500e-03,-2.48e+00,
-2.304000e-03,-2.00e+00,
-2.303500e-03,-2.92e+00,
-2.303000e-03,9.60e-01,
-2.302500e-03,-2.00e+00,
-2.302000e-03,-1.04e+00,
-2.301500e-03,-8.40e-01,
-2.301000e-03,-1.40e+00,
-2.300500e-03,-2.52e+00,
-2.300000e-03,-1.84e+00,
-2.299500e-03,0.00e+00,
-2.299000e-03,5.60e-01,
-2.298500e-03,-5.20e-01,
-2.298000e-03,-4.80e-01,
-2.297500e-03,1.04e+00,
-2.297000e-03,5.60e-01,
-2.296500e-03,-3.60e+00,
-2.296000e-03,-1.20e+00,
-2.295500e-03,1.60e-01,
-2.295000e-03,-3.20e-01,
-2.294500e-03,0.00e+00,
-2.294000e-03,-4.04e+00,
-2.293500e-03,-4.04e+00,
-2.293000e-03,-1.64e+00,
-2.292500e-03,-3.24e+00,
-2.292000e-03,-2.00e-01,
-2.291500e-03,-1.84e+00,
-2.291000e-03,-2.80e-01,
-2.290500e-03,-5.60e-01,
-2.290000e-03,-1.12e+00,
-2.289500e-03,1.04e+00,
-2.289000e-03,-8.80e-01,
-2.288500e-03,1.04e+00,
-2.288000e-03,-4.40e-01,
-2.287500e-03,-2.36e+00,
-2.287000e-03,1.04e+00,
-2.286500e-03,1.04e+00,
-2.286000e-03,3.20e-01,
-2.285500e-03,-1.60e+00,
-2.285000e-03,-8.80e-01,
-2.284500e-03,-8.80e-01,
-2.284000e-03,4.00e-01,
-2.283500e-03,-2.00e-01,
-2.283000e-03,1.04e+00,
-2.282500e-03,1.04e+00,
-2.282000e-03,-2.16e+00,
-2.281500e-03,-6.40e-01,
-2.281000e-03,-1.28e+00,
-2.280500e-03,-1.60e+00,
-2.280000e-03,-1.04e+00,
-2.279500e-03,1.00e+00,
-2.279000e-03,-3.80e+00,
-2.278500e-03,-1.60e+00,
-2.278000e-03,-2.08e+00,
-2.277500e-03,-8.00e-01,
-2.277000e-03,-2.24e+00,
-2.276500e-03,-4.04e+00,
-2.276000e-03,1.04e+00,
-2.275500e-03,1.20e-01,
-2.275000e-03,2.00e-01,
-2.274500e-03,-3.84e+00,
-2.274000e-03,-4.40e-01,
-2.273500e-03,-1.68e+00,
-2.273000e-03,-8.40e-01,
-2.272500e-03,-2.20e+00,
-2.272000e-03,-9.20e-01,
-2.271500e-03,-1.12e+00,
-2.271000e-03,-1.56e+00,
-2.270500e-03,-1.20e-01,
-2.270000e-03,-9.20e-01,
-2.269500e-03,-4.00e+00,
-2.269000e-03,3.60e-01,
-2.268500e-03,-6.40e-01,
-2.268000e-03,5.60e-01,
-2.267500e-03,-2.20e+00,
-2.267000e-03,3.60e-01,
-2.266500e-03,-8.40e-01,
-2.266000e-03,1.00e+00,
-2.265500e-03,-2.48e+00,
-2.265000e-03,6.00e-01,
-2.264500e-03,-1.28e+00,
-2.264000e-03,-1.60e-01,
-2.263500e-03,-1.16e+00,
-2.263000e-03,1.04e+00,
-2.262500e-03,-2.12e+00,
-2.262000e-03,-8.80e-01,
-2.261500e-03,-1.52e+00,
-2.261000e-03,-3.20e-01,
-2.260500e-03,5.20e-01,
-2.260000e-03,4.40e-01,
-2.259500e-03,4.40e-01,
-2.259000e-03,-3.24e+00,
-2.258500e-03,-7.20e-01,
-2.258000e-03,1.00e+00,
-2.257500e-03,-4.08e+00,
-2.257000e-03,-1.36e+00,
-2.256500e-03,1.04e+00,
-2.256000e-03,-6.80e-01,
-2.255500e-03,1.00e+00,
-2.255000e-03,-1.68e+00,
-2.254500e-03,1.04e+00,
-2.254000e-03,1.60e-01,
-2.253500e-03,5.60e-01,
-2.253000e-03,5.60e-01,
-2.252500e-03,-8.00e-02,
-2.252000e-03,6.00e-01,
-2.251500e-03,-3.84e+00,
-2.251000e-03,-1.36e+00,
-2.250500e-03,-1.60e-01,
-2.250000e-03,-8.80e-01,
-2.249500e-03,-2.16e+00,
-2.249000e-03,-1.68e+00,
-2.248500e-03,-9.60e-01,
-2.248000e-03,-3.12e+00,
-2.247500e-03,-2.28e+00,
-2.247000e-03,-1.40e+00,
-2.246500e-03,-8.80e-01,
-2.246000e-03,-2.12e+00,
-2.245500e-03,-3.04e+00,
-2.245000e-03,1.00e+00,
-2.244500e-03,1.04e+00,
-2.244000e-03,4.00e-02,
-2.243500e-03,3.20e-01,
-2.243000e-03,-6.00e-01,
-2.242500e-03,4.00e-01,
-2.242000e-03,-3.56e+00,
-2.241500e-03,-3.44e+00,
-2.241000e-03,-6.00e-01,
-2.240500e-03,4.00e-01,
-2.240000e-03,1.20e-01,
-2.239500e-03,-1.16e+00,
-2.239000e-03,1.04e+00,
-2.238500e-03,-3.64e+00,
-2.238000e-03,2.40e-01,
-2.237500e-03,4.00e-01,
-2.237000e-03,4.00e-02,
-2.236500e-03,-2.20e+00,
-2.236000e-03,-4.80e-01,
-2.235500e-03,-2.44e+00,
-2.235000e-03,1.60e-01,
-2.234500e-03,6.00e-01,
-2.234000e-03,-2.52e+00,
-2.233500e-03,-9.20e-01,
-2.233000e-03,-1.20e-01,
-2.232500e-03,-2.00e+00,
-2.232000e-03,-2.24e+00,
-2.231500e-03,-5.60e-01,
-2.231000e-03,9.60e-01,
-2.230500e-03,-1.20e+00,
-2.230000e-03,-1.64e+00,
-2.229500e-03,-1.56e+00,
-2.229000e-03,-2.80e+00,
-2.228500e-03,-1.04e+00,
-2.228000e-03,-9.20e-01,
-2.227500e-03,1.00e+00,
-2.227000e-03,1.00e+00,
-2.226500e-03,5.20e-01,
-2.226000e-03,-3.60e-01,
-2.225500e-03,1.00e+00,
-2.225000e-03,8.00e-02,
-2.224500e-03,-3.60e-01,
-2.224000e-03,-3.84e+00,
-2.223500e-03,-1.20e+00,
-2.223000e-03,-1.64e+00,
-2.222500e-03,-2.60e+00,
-2.222000e-03,-2.04e+00,
-2.221500e-03,-3.60e-01,
-2.221000e-03,4.00e-01,
-2.220500e-03,4.80e-01,
-2.220000e-03,2.80e-01,
-2.219500e-03,7.20e-01,
-2.219000e-03,8.00e-02,
-2.218500e-03,-5.20e-01,
-2.218000e-03,-1.92e+00,
-2.217500e-03,1.00e+00,
-2.217000e-03,-5.20e-01,
-2.216500e-03,3.60e-01,
-2.216000e-03,-6.40e-01,
-2.215500e-03,-3.16e+00,
-2.215000e-03,-4.08e+00,
-2.214500e-03,-1.20e-01,
-2.214000e-03,-2.28e+00,
-2.213500e-03,-1.12e+00,
-2.213000e-03,2.80e-01,
-2.212500e-03,-1.96e+00,
-2.212000e-03,-2.28e+00,
-2.211500e-03,-1.28e+00,
-2.211000e-03,-2.00e-01,
-2.210500e-03,-2.60e+00,
-2.210000e-03,1.00e+00,
-2.209500e-03,-3.76e+00,
-2.209000e-03,8.80e-01,
-2.208500e-03,-1.92e+00,
-2.208000e-03,-3.60e-01,
-2.207500e-03,-1.80e+00,
-2.207000e-03,1.04e+00,
-2.206500e-03,-8.00e-02,
-2.206000e-03,8.00e-01,
-2.205500e-03,-1.36e+00,
-2.205000e-03,1.20e-01,
-2.204500e-03,1.04e+00,
-2.204000e-03,-2.20e+00,
-2.203500e-03,-1.60e-01,
-2.203000e-03,-2.56e+00,
-2.202500e-03,3.20e-01,
-2.202000e-03,1.04e+00,
-2.201500e-03,-1.08e+00,
-2.201000e-03,4.00e-02,
-2.200500e-03,-1.20e-01,
-2.200000e-03,-2.36e+00,
-2.199500e-03,-8.00e-02,
-2.199000e-03,-2.36e+00,
-2.198500e-03,-7.20e-01,
-2.198000e-03,-4.04e+00,
-2.197500e-03,-1.92e+00,
-2.197000e-03,-7.60e-01,
-2.196500e-03,-2.80e-01,
-2.196000e-03,0.00e+00,
-2.195500e-03,1.08e+00,
-2.195000e-03,-2.80e-01,
-2.194500e-03,1.00e+00,
-2.194000e-03,1.04e+00,
-2.193500e-03,-2.36e+00,
-2.193000e-03,-4.00e-01,
-2.192500e-03,-2.00e-01,
-2.192000e-03,1.04e+00,
-2.191500e-03,-1.80e+00,
-2.191000e-03,1.00e+00,
-2.190500e-03,-1.60e+00,
-2.190000e-03,5.60e-01,
-2.189500e-03,-2.60e+00,
-2.189000e-03,1.04e+00,
-2.188500e-03,2.80e-01,
-2.188000e-03,-1.20e+00,
-2.187500e-03,-1.40e+00,
-2.187000e-03,-1.20e+00,
-2.186500e-03,-1.12e+00,
-2.186000e-03,-3.60e-01,
-2.185500e-03,-1.04e+00,
-2.185000e-03,-4.00e-01,
-2.184500e-03,-2.60e+00,
-2.184000e-03,-4.04e+00,
-2.183500e-03,-2.80e+00,
-2.183000e-03,1.20e-01,
-2.182500e-03,4.00e-02,
-2.182000e-03,-5.20e-01,
-2.181500e-03,-6.80e-01,
-2.181000e-03,-2.08e+00,
-2.180500e-03,-1.36e+00,
-2.180000e-03,-2.80e-01,
-2.179500e-03,8.00e-02,
-2.179000e-03,7.20e-01,
-2.178500e-03,-1.32e+00,
-2.178000e-03,-1.40e+00,
-2.177500e-03,-4.04e+00,
-2.177000e-03,-1.20e-01,
-2.176500e-03,1.08e+00,
-2.176000e-03,-5.60e-01,
-2.175500e-03,-8.40e-01,
-2.175000e-03,-4.00e-01,
-2.174500e-03,7.20e-01,
-2.174000e-03,1.04e+00,
-2.173500e-03,4.40e-01,
-2.173000e-03,1.08e+00,
-2.172500e-03,-3.20e-01,
-2.172000e-03,-8.40e-01,
-2.171500e-03,-3.08e+00,
-2.171000e-03,-4.00e-01,
-2.170500e-03,-4.00e-02,
-2.170000e-03,1.08e+00,
-2.169500e-03,-1.72e+00,
-2.169000e-03,1.04e+00,
-2.168500e-03,-2.40e-01,
-2.168000e-03,-9.20e-01,
-2.167500e-03,-1.96e+00,
-2.167000e-03,0.00e+00,
-2.166500e-03,-3.60e-01,
-2.166000e-03,5.60e-01,
-2.165500e-03,4.00e-02,
-2.165000e-03,7.20e-01,
-2.164500e-03,-1.64e+00,
-2.164000e-03,-1.76e+00,
-2.163500e-03,-2.04e+00,
-2.163000e-03,3.60e-01,
-2.162500e-03,-2.12e+00,
-2.162000e-03,-7.20e-01,
-2.161500e-03,5.20e-01,
-2.161000e-03,5.60e-01,
-2.160500e-03,1.08e+00,
-2.160000e-03,-7.60e-01,
-2.159500e-03,-5.60e-01,
-2.159000e-03,1.60e-01,
-2.158500e-03,6.40e-01,
-2.158000e-03,1.08e+00,
-2.157500e-03,-2.32e+00,
-2.157000e-03,1.08e+00,
-2.156500e-03,-6.40e-01,
-2.156000e-03,-1.52e+00,
-2.155500e-03,1.12e+00,
-2.155000e-03,-1.44e+00,
-2.154500e-03,-1.24e+00,
-2.154000e-03,-2.20e+00,
-2.153500e-03,7.20e-01,
-2.153000e-03,1.08e+00,
-2.152500e-03,5.20e-01,
-2.152000e-03,-1.60e-01,
-2.151500e-03,-6.40e-01,
-2.151000e-03,-1.12e+00,
-2.150500e-03,-7.20e-01,
-2.150000e-03,4.40e-01,
-2.149500e-03,-1.60e+00,
-2.149000e-03,-2.40e-01,
-2.148500e-03,9.20e-01,
-2.148000e-03,-8.00e-02,
-2.147500e-03,0.00e+00,
-2.147000e-03,-6.00e-01,
-2.146500e-03,-8.80e-01,
-2.146000e-03,-1.60e-01,
-2.145500e-03,4.00e-01,
-2.145000e-03,-3.04e+00,
-2.144500e-03,1.12e+00,
-2.144000e-03,-7.60e-01,
-2.143500e-03,-8.00e-02,
-2.143000e-03,1.12e+00,
-2.142500e-03,1.08e+00,
-2.142000e-03,-4.80e-01,
-2.141500e-03,-2.48e+00,
-2.141000e-03,-1.96e+00,
-2.140500e-03,-2.44e+00,
-2.140000e-03,3.20e-01,
-2.139500e-03,5.20e-01,
-2.139000e-03,1.08e+00,
-2.138500e-03,-1.40e+00,
-2.138000e-03,-6.40e-01,
-2.137500e-03,-2.00e+00,
-2.137000e-03,-1.28e+00,
-2.136500e-03,5.20e-01,
-2.136000e-03,-2.24e+00,
-2.135500e-03,4.00e-01,
-2.135000e-03,-3.96e+00,
-2.134500e-03,-3.00e+00,
-2.134000e-03,-2.56e+00,
-2.133500e-03,-4.00e-01,
-2.133000e-03,4.80e-01,
-2.132500e-03,4.80e-01,
-2.132000e-03,-8.40e-01,
-2.131500e-03,-2.40e+00,
-2.131000e-03,1.08e+00,
-2.130500e-03,1.12e+00,
-2.130000e-03,-1.08e+00,
-2.129500e-03,-2.20e+00,
-2.129000e-03,8.80e-01,
-2.128500e-03,-1.64e+00,
-2.128000e-03,-1.44e+00,
-2.127500e-03,-2.12e+00,
-2.127000e-03,-1.88e+00,
-2.126500e-03,-2.40e-01,
-2.126000e-03,1.12e+00,
-2.125500e-03,-1.48e+00,
-2.125000e-03,-2.44e+00,
-2.124500e-03,0.00e+00,
-2.124000e-03,-2.92e+00,
-2.123500e-03,-1.68e+00,
-2.123000e-03,5.20e-01,
-2.122500e-03,-2.76e+00,
-2.122000e-03,-8.00e-01,
-2.121500e-03,1.12e+00,
-2.121000e-03,-2.80e-01,
-2.120500e-03,-1.20e-01,
-2.120000e-03,-1.52e+00,
-2.119500e-03,-1.64e+00,
-2.119000e-03,1.00e+00,
-2.118500e-03,-3.20e-01,
-2.118000e-03,-1.16e+00,
-2.117500e-03,1.16e+00,
-2.117000e-03,7.60e-01,
-2.116500e-03,-3.16e+00,
-2.116000e-03,-1.08e+00,
-2.115500e-03,6.80e-01,
-2.115000e-03,-4.00e-02,
-2.114500e-03,-1.32e+00,
-2.114000e-03,8.00e-01,
-2.113500e-03,1.16e+00,
-2.113000e-03,0.00e+00,
-2.112500e-03,-3.24e+00,
-2.112000e-03,1.20e+00,
-2.111500e-03,-7.20e-01,
-2.111000e-03,1.12e+00,
-2.110500e-03,-2.00e-01,
-2.110000e-03,8.00e-02,
-2.109500e-03,8.80e-01,
-2.109000e-03,1.12e+00,
-2.108500e-03,-1.04e+00,
-2.108000e-03,6.00e-01,
-2.107500e-03,-4.00e-01,
-2.107000e-03,-4.80e-01,
-2.106500e-03,-1.56e+00,
-2.106000e-03,-1.40e+00,
-2.105500e-03,-1.16e+00,
